%YAML 1.1
%TAG !u! tag:unity3d.com,2011:
--- !u!114 &7188736379347873809
MonoBehaviour:
  m_ObjectHideFlags: 0
  m_CorrespondingSourceObject: {fileID: 0}
  m_PrefabInstance: {fileID: 0}
  m_PrefabAsset: {fileID: 0}
  m_GameObject: {fileID: 6024100719511844318}
  m_Enabled: 1
  m_EditorHideFlags: 0
  m_Script: {fileID: 11500000, guid: 8e952276834220548bdac7820edf4f60, type: 3}
  m_Name: 
  m_EditorClassIdentifier: 
  targetLayers:
    serializedVersion: 2
    m_Bits: 1024
  damage: 250
  damageOnStart: 1
  freezesEnemies: 0
--- !u!1001 &2411432362376014209
PrefabInstance:
  m_ObjectHideFlags: 0
  serializedVersion: 2
  m_Modification:
    m_TransformParent: {fileID: 0}
    m_Modifications:
    - target: {fileID: -8144559413757293438, guid: 2483ab434a69dc84b87f192e36885363,
        type: 3}
      propertyPath: m_BodyType
      value: 1
      objectReference: {fileID: 0}
    - target: {fileID: 8281775958350896223, guid: 2483ab434a69dc84b87f192e36885363,
        type: 3}
      propertyPath: m_Name
      value: Skullballexplosion
      objectReference: {fileID: 0}
    - target: {fileID: 8281775958350896223, guid: 2483ab434a69dc84b87f192e36885363,
        type: 3}
      propertyPath: m_Layer
      value: 11
      objectReference: {fileID: 0}
    - target: {fileID: 8281775958350896217, guid: 2483ab434a69dc84b87f192e36885363,
        type: 3}
      propertyPath: m_LocalPosition.x
      value: -4.567377
      objectReference: {fileID: 0}
    - target: {fileID: 8281775958350896217, guid: 2483ab434a69dc84b87f192e36885363,
        type: 3}
      propertyPath: m_LocalPosition.y
      value: -4.6501412
      objectReference: {fileID: 0}
    - target: {fileID: 8281775958350896217, guid: 2483ab434a69dc84b87f192e36885363,
        type: 3}
      propertyPath: m_LocalPosition.z
      value: -8.701172
      objectReference: {fileID: 0}
    - target: {fileID: 8281775958350896217, guid: 2483ab434a69dc84b87f192e36885363,
        type: 3}
      propertyPath: m_LocalRotation.x
      value: 0
      objectReference: {fileID: 0}
    - target: {fileID: 8281775958350896217, guid: 2483ab434a69dc84b87f192e36885363,
        type: 3}
      propertyPath: m_LocalRotation.y
      value: 0
      objectReference: {fileID: 0}
    - target: {fileID: 8281775958350896217, guid: 2483ab434a69dc84b87f192e36885363,
        type: 3}
      propertyPath: m_LocalRotation.z
      value: 0
      objectReference: {fileID: 0}
    - target: {fileID: 8281775958350896217, guid: 2483ab434a69dc84b87f192e36885363,
        type: 3}
      propertyPath: m_LocalRotation.w
      value: 1
      objectReference: {fileID: 0}
    - target: {fileID: 8281775958350896217, guid: 2483ab434a69dc84b87f192e36885363,
        type: 3}
      propertyPath: m_RootOrder
      value: 0
      objectReference: {fileID: 0}
    - target: {fileID: 8281775958350896217, guid: 2483ab434a69dc84b87f192e36885363,
        type: 3}
      propertyPath: m_LocalEulerAnglesHint.x
      value: 0
      objectReference: {fileID: 0}
    - target: {fileID: 8281775958350896217, guid: 2483ab434a69dc84b87f192e36885363,
        type: 3}
      propertyPath: m_LocalEulerAnglesHint.y
      value: 0
      objectReference: {fileID: 0}
    - target: {fileID: 8281775958350896217, guid: 2483ab434a69dc84b87f192e36885363,
        type: 3}
      propertyPath: m_LocalEulerAnglesHint.z
      value: 0
      objectReference: {fileID: 0}
    - target: {fileID: 8281775958350896217, guid: 2483ab434a69dc84b87f192e36885363,
        type: 3}
      propertyPath: m_LocalScale.x
      value: 4.7000523
      objectReference: {fileID: 0}
    - target: {fileID: 8281775958350896217, guid: 2483ab434a69dc84b87f192e36885363,
        type: 3}
      propertyPath: m_LocalScale.y
      value: 4.7000523
      objectReference: {fileID: 0}
    - target: {fileID: 8281775958350896217, guid: 2483ab434a69dc84b87f192e36885363,
        type: 3}
      propertyPath: m_LocalScale.z
      value: 4.7000523
      objectReference: {fileID: 0}
    - target: {fileID: 8281775958350896222, guid: 2483ab434a69dc84b87f192e36885363,
        type: 3}
      propertyPath: m_SortingLayer
      value: 3
      objectReference: {fileID: 0}
    - target: {fileID: 8281775958350896222, guid: 2483ab434a69dc84b87f192e36885363,
        type: 3}
      propertyPath: m_Color.g
      value: 0
      objectReference: {fileID: 0}
    - target: {fileID: 8281775958350896222, guid: 2483ab434a69dc84b87f192e36885363,
        type: 3}
      propertyPath: m_Color.b
      value: 1
      objectReference: {fileID: 0}
    - target: {fileID: 8281775958350896222, guid: 2483ab434a69dc84b87f192e36885363,
        type: 3}
      propertyPath: m_Color.r
      value: 0.95092964
      objectReference: {fileID: 0}
    - target: {fileID: -5261934013126463225, guid: 2483ab434a69dc84b87f192e36885363,
        type: 3}
      propertyPath: m_Radius
      value: 0.35
      objectReference: {fileID: 0}
    - target: {fileID: 8281775957160301751, guid: 2483ab434a69dc84b87f192e36885363,
        type: 3}
      propertyPath: m_LocalScale.x
      value: 0.70059246
      objectReference: {fileID: 0}
    - target: {fileID: 8281775957160301751, guid: 2483ab434a69dc84b87f192e36885363,
        type: 3}
      propertyPath: m_LocalScale.y
      value: 0.70059246
      objectReference: {fileID: 0}
    - target: {fileID: 8281775957160301751, guid: 2483ab434a69dc84b87f192e36885363,
        type: 3}
      propertyPath: m_LocalScale.z
      value: 0.70059246
      objectReference: {fileID: 0}
    - target: {fileID: 8281775957160301748, guid: 2483ab434a69dc84b87f192e36885363,
        type: 3}
      propertyPath: m_Layer
      value: 11
      objectReference: {fileID: 0}
    - target: {fileID: 8281775957160301745, guid: 2483ab434a69dc84b87f192e36885363,
        type: 3}
      propertyPath: EmissionModule.m_Bursts.Array.size
      value: 1
      objectReference: {fileID: 0}
    - target: {fileID: 8281775957160301745, guid: 2483ab434a69dc84b87f192e36885363,
        type: 3}
      propertyPath: EmissionModule.m_Bursts.Array.data[0].countCurve.maxCurve.m_Curve.Array.size
      value: 2
      objectReference: {fileID: 0}
    - target: {fileID: 8281775957160301745, guid: 2483ab434a69dc84b87f192e36885363,
        type: 3}
      propertyPath: EmissionModule.m_Bursts.Array.data[0].countCurve.minCurve.m_Curve.Array.size
      value: 2
      objectReference: {fileID: 0}
    - target: {fileID: 8281775957160301745, guid: 2483ab434a69dc84b87f192e36885363,
        type: 3}
      propertyPath: looping
      value: 0
      objectReference: {fileID: 0}
    - target: {fileID: 8281775957160301745, guid: 2483ab434a69dc84b87f192e36885363,
        type: 3}
      propertyPath: InitialModule.startLifetime.scalar
      value: 0.8
      objectReference: {fileID: 0}
    - target: {fileID: 8281775957160301745, guid: 2483ab434a69dc84b87f192e36885363,
        type: 3}
      propertyPath: InitialModule.startLifetime.minScalar
      value: 0.4
      objectReference: {fileID: 0}
    - target: {fileID: 8281775957160301745, guid: 2483ab434a69dc84b87f192e36885363,
        type: 3}
      propertyPath: InitialModule.startSpeed.scalar
      value: 14.5
      objectReference: {fileID: 0}
    - target: {fileID: 8281775957160301745, guid: 2483ab434a69dc84b87f192e36885363,
        type: 3}
      propertyPath: ShapeModule.angle
      value: 17.5
      objectReference: {fileID: 0}
    - target: {fileID: 8281775957160301745, guid: 2483ab434a69dc84b87f192e36885363,
        type: 3}
      propertyPath: ShapeModule.radius.value
      value: 1.58
      objectReference: {fileID: 0}
    - target: {fileID: 8281775957160301745, guid: 2483ab434a69dc84b87f192e36885363,
        type: 3}
      propertyPath: EmissionModule.rateOverTime.scalar
      value: 0
      objectReference: {fileID: 0}
    - target: {fileID: 8281775957160301745, guid: 2483ab434a69dc84b87f192e36885363,
        type: 3}
      propertyPath: EmissionModule.m_BurstCount
      value: 1
      objectReference: {fileID: 0}
    - target: {fileID: 8281775957160301745, guid: 2483ab434a69dc84b87f192e36885363,
        type: 3}
      propertyPath: EmissionModule.m_Bursts.Array.data[0].countCurve.scalar
      value: 40
      objectReference: {fileID: 0}
    - target: {fileID: 8281775957160301745, guid: 2483ab434a69dc84b87f192e36885363,
        type: 3}
      propertyPath: EmissionModule.m_Bursts.Array.data[0].countCurve.minScalar
      value: 30
      objectReference: {fileID: 0}
    - target: {fileID: 8281775957160301745, guid: 2483ab434a69dc84b87f192e36885363,
        type: 3}
      propertyPath: EmissionModule.m_Bursts.Array.data[0].countCurve.maxCurve.m_Curve.Array.data[0].value
      value: 1
      objectReference: {fileID: 0}
    - target: {fileID: 8281775957160301745, guid: 2483ab434a69dc84b87f192e36885363,
        type: 3}
      propertyPath: EmissionModule.m_Bursts.Array.data[0].countCurve.maxCurve.m_Curve.Array.data[0].inWeight
      value: 0.33333334
      objectReference: {fileID: 0}
    - target: {fileID: 8281775957160301745, guid: 2483ab434a69dc84b87f192e36885363,
        type: 3}
      propertyPath: EmissionModule.m_Bursts.Array.data[0].countCurve.maxCurve.m_Curve.Array.data[0].outWeight
      value: 0.33333334
      objectReference: {fileID: 0}
    - target: {fileID: 8281775957160301745, guid: 2483ab434a69dc84b87f192e36885363,
        type: 3}
      propertyPath: EmissionModule.m_Bursts.Array.data[0].countCurve.maxCurve.m_Curve.Array.data[1].time
      value: 1
      objectReference: {fileID: 0}
    - target: {fileID: 8281775957160301745, guid: 2483ab434a69dc84b87f192e36885363,
        type: 3}
      propertyPath: EmissionModule.m_Bursts.Array.data[0].countCurve.maxCurve.m_Curve.Array.data[1].value
      value: 1
      objectReference: {fileID: 0}
    - target: {fileID: 8281775957160301745, guid: 2483ab434a69dc84b87f192e36885363,
        type: 3}
      propertyPath: EmissionModule.m_Bursts.Array.data[0].countCurve.maxCurve.m_Curve.Array.data[1].inWeight
      value: 0.33333334
      objectReference: {fileID: 0}
    - target: {fileID: 8281775957160301745, guid: 2483ab434a69dc84b87f192e36885363,
        type: 3}
      propertyPath: EmissionModule.m_Bursts.Array.data[0].countCurve.maxCurve.m_Curve.Array.data[1].outWeight
      value: 0.33333334
      objectReference: {fileID: 0}
    - target: {fileID: 8281775957160301745, guid: 2483ab434a69dc84b87f192e36885363,
        type: 3}
      propertyPath: EmissionModule.m_Bursts.Array.data[0].countCurve.maxCurve.m_PreInfinity
      value: 2
      objectReference: {fileID: 0}
    - target: {fileID: 8281775957160301745, guid: 2483ab434a69dc84b87f192e36885363,
        type: 3}
      propertyPath: EmissionModule.m_Bursts.Array.data[0].countCurve.maxCurve.m_PostInfinity
      value: 2
      objectReference: {fileID: 0}
    - target: {fileID: 8281775957160301745, guid: 2483ab434a69dc84b87f192e36885363,
        type: 3}
      propertyPath: EmissionModule.m_Bursts.Array.data[0].countCurve.maxCurve.m_RotationOrder
      value: 4
      objectReference: {fileID: 0}
    - target: {fileID: 8281775957160301745, guid: 2483ab434a69dc84b87f192e36885363,
        type: 3}
      propertyPath: EmissionModule.m_Bursts.Array.data[0].countCurve.minCurve.m_Curve.Array.data[0].value
      value: 1
      objectReference: {fileID: 0}
    - target: {fileID: 8281775957160301745, guid: 2483ab434a69dc84b87f192e36885363,
        type: 3}
      propertyPath: EmissionModule.m_Bursts.Array.data[0].countCurve.minCurve.m_Curve.Array.data[0].inWeight
      value: 0.33333334
      objectReference: {fileID: 0}
    - target: {fileID: 8281775957160301745, guid: 2483ab434a69dc84b87f192e36885363,
        type: 3}
      propertyPath: EmissionModule.m_Bursts.Array.data[0].countCurve.minCurve.m_Curve.Array.data[0].outWeight
      value: 0.33333334
      objectReference: {fileID: 0}
    - target: {fileID: 8281775957160301745, guid: 2483ab434a69dc84b87f192e36885363,
        type: 3}
      propertyPath: EmissionModule.m_Bursts.Array.data[0].countCurve.minCurve.m_Curve.Array.data[1].time
      value: 1
      objectReference: {fileID: 0}
    - target: {fileID: 8281775957160301745, guid: 2483ab434a69dc84b87f192e36885363,
        type: 3}
      propertyPath: EmissionModule.m_Bursts.Array.data[0].countCurve.minCurve.m_Curve.Array.data[1].value
      value: 1
      objectReference: {fileID: 0}
    - target: {fileID: 8281775957160301745, guid: 2483ab434a69dc84b87f192e36885363,
        type: 3}
      propertyPath: EmissionModule.m_Bursts.Array.data[0].countCurve.minCurve.m_Curve.Array.data[1].inWeight
      value: 0.33333334
      objectReference: {fileID: 0}
    - target: {fileID: 8281775957160301745, guid: 2483ab434a69dc84b87f192e36885363,
        type: 3}
      propertyPath: EmissionModule.m_Bursts.Array.data[0].countCurve.minCurve.m_Curve.Array.data[1].outWeight
      value: 0.33333334
      objectReference: {fileID: 0}
    - target: {fileID: 8281775957160301745, guid: 2483ab434a69dc84b87f192e36885363,
        type: 3}
      propertyPath: EmissionModule.m_Bursts.Array.data[0].countCurve.minCurve.m_PreInfinity
      value: 2
      objectReference: {fileID: 0}
    - target: {fileID: 8281775957160301745, guid: 2483ab434a69dc84b87f192e36885363,
        type: 3}
      propertyPath: EmissionModule.m_Bursts.Array.data[0].countCurve.minCurve.m_PostInfinity
      value: 2
      objectReference: {fileID: 0}
    - target: {fileID: 8281775957160301745, guid: 2483ab434a69dc84b87f192e36885363,
        type: 3}
      propertyPath: EmissionModule.m_Bursts.Array.data[0].countCurve.minCurve.m_RotationOrder
      value: 4
      objectReference: {fileID: 0}
    - target: {fileID: 8281775957160301745, guid: 2483ab434a69dc84b87f192e36885363,
        type: 3}
      propertyPath: EmissionModule.m_Bursts.Array.data[0].cycleCount
      value: 1
      objectReference: {fileID: 0}
    - target: {fileID: 8281775957160301745, guid: 2483ab434a69dc84b87f192e36885363,
        type: 3}
      propertyPath: EmissionModule.m_Bursts.Array.data[0].repeatInterval
      value: 0.01
      objectReference: {fileID: 0}
    - target: {fileID: 8281775957160301745, guid: 2483ab434a69dc84b87f192e36885363,
        type: 3}
      propertyPath: EmissionModule.m_Bursts.Array.data[0].probability
      value: 1
      objectReference: {fileID: 0}
    - target: {fileID: 8281775957160301745, guid: 2483ab434a69dc84b87f192e36885363,
        type: 3}
      propertyPath: InitialModule.startColor.maxColor.r
      value: 1
      objectReference: {fileID: 0}
    - target: {fileID: 8281775957160301745, guid: 2483ab434a69dc84b87f192e36885363,
        type: 3}
      propertyPath: InitialModule.startColor.maxColor.g
      value: 0.19339621
      objectReference: {fileID: 0}
    - target: {fileID: 8281775957160301745, guid: 2483ab434a69dc84b87f192e36885363,
        type: 3}
      propertyPath: InitialModule.startColor.maxColor.b
      value: 0.9590581
      objectReference: {fileID: 0}
    - target: {fileID: 8281775957160301745, guid: 2483ab434a69dc84b87f192e36885363,
        type: 3}
      propertyPath: SizeModule.curve.maxCurve.m_Curve.Array.data[1].inSlope
      value: -0.10272864
      objectReference: {fileID: 0}
    - target: {fileID: 8281775957160301745, guid: 2483ab434a69dc84b87f192e36885363,
        type: 3}
      propertyPath: SizeModule.curve.maxCurve.m_Curve.Array.data[1].outSlope
      value: -0.10272864
      objectReference: {fileID: 0}
    - target: {fileID: 8281775957160301745, guid: 2483ab434a69dc84b87f192e36885363,
        type: 3}
      propertyPath: SizeModule.curve.maxCurve.m_Curve.Array.data[1].inWeight
      value: 0.1792115
      objectReference: {fileID: 0}
    - target: {fileID: 8281775957160301745, guid: 2483ab434a69dc84b87f192e36885363,
        type: 3}
      propertyPath: SizeModule.curve.maxCurve.m_Curve.Array.data[0].inSlope
      value: 1.3135821
      objectReference: {fileID: 0}
    - target: {fileID: 8281775957160301745, guid: 2483ab434a69dc84b87f192e36885363,
        type: 3}
      propertyPath: SizeModule.curve.maxCurve.m_Curve.Array.data[0].outSlope
      value: 1.3135821
      objectReference: {fileID: 0}
    - target: {fileID: 8281775957160301745, guid: 2483ab434a69dc84b87f192e36885363,
        type: 3}
      propertyPath: SizeModule.curve.maxCurve.m_Curve.Array.data[0].outWeight
      value: 0.15412186
      objectReference: {fileID: 0}
    m_RemovedComponents:
    - {fileID: 6489261183911945998, guid: 2483ab434a69dc84b87f192e36885363, type: 3}
  m_SourcePrefab: {fileID: 100100000, guid: 2483ab434a69dc84b87f192e36885363, type: 3}
--- !u!1 &6024100719511844318 stripped
GameObject:
  m_CorrespondingSourceObject: {fileID: 8281775958350896223, guid: 2483ab434a69dc84b87f192e36885363,
    type: 3}
  m_PrefabInstance: {fileID: 2411432362376014209}
  m_PrefabAsset: {fileID: 0}
